…
nrow

``` r
iris %>% 
  as_tibble() %>% 
  modify_if(is.numeric, ~ .x / iris$Sepal.Length)
```

    ## # A tibble: 150 x 5
    ##    Sepal.Length Sepal.Width Petal.Length Petal.Width Species
    ##           <dbl>       <dbl>        <dbl>       <dbl> <fct>  
    ##  1            1       0.686        0.275      0.0392 setosa 
    ##  2            1       0.612        0.286      0.0408 setosa 
    ##  3            1       0.681        0.277      0.0426 setosa 
    ##  4            1       0.674        0.326      0.0435 setosa 
    ##  5            1       0.72         0.280      0.04   setosa 
    ##  6            1       0.722        0.315      0.0741 setosa 
    ##  7            1       0.739        0.304      0.0652 setosa 
    ##  8            1       0.68         0.3        0.04   setosa 
    ##  9            1       0.659        0.318      0.0455 setosa 
    ## 10            1       0.633        0.306      0.0204 setosa 
    ## # … with 140 more rows
…
