R for Data Science
…
dttm : date + time

lgl : logical vectors

fctr : factors

date : date

filter(flights, month == 1, day == 1)

## # A tibble: 842 x 19
##     year month   day dep_time sched_dep_time dep_delay arr_time
##    <int> <int> <int>    <int>          <int>     <dbl>    <int>
##  1  2013     1     1      517            515         2      830
##  2  2013     1     1      533            529         4      850
##  3  2013     1     1      542            540         2      923
##  4  2013     1     1      544            545        -1     1004
##  5  2013     1     1      554            600        -6      812
##  6  2013     1     1      554            558        -4      740
##  7  2013     1     1      555            600        -5      913
##  8  2013     1     1      557            600        -3      709
##  9  2013     1     1      557            600        -3      838
## 10  2013     1     1      558            600        -2      753
## # ... with 832 more rows, and 12 more variables: sched_arr_time <int>,
## #   arr_delay <dbl>, carrier <chr>, flight <int>, tailnum <chr>,
## #   origin <chr>, dest <chr>, air_time <dbl>, distance <dbl>, hour <dbl>,
## #   minute <dbl>, time_hour <dttm>
…
## [1] TRUE

near(1/49 * 49, 1)

## [1] TRUE

2.2 Exercises

Were delayed by at least an hour, but made up over 30
minutes in flight

filter(flights, dep_delay >= 60 & dep_delay - arr_delay >= 30)

## # A tibble: 2,074 x 19
##     year month   day dep_time sched_dep_time dep_delay arr_time
##    <int> <int> <int>    <int>          <int>     <dbl>    <int>
##  1  2013     1     1     1716           1545        91     2140
##  2  2013     1     1     2205           1720       285       46
##  3  2013     1     1     2326           2130       116      131
##  4  2013     1     3     1503           1221       162     1803
##  5  2013     1     3     1821           1530       171     2131
##  6  2013     1     3     1839           1700        99     2056
##  7  2013     1     3     1850           1745        65     2148
##  8  2013     1     3     1923           1815        68     2036
##  9  2013     1     3     1941           1759       102     2246
## 10  2013     1     3     1950           1845        65     2228
## # ... with 2,064 more rows, and 12 more variables: sched_arr_time <int>,
## #   arr_delay <dbl>, carrier <chr>, flight <int>, tailnum <chr>,
## #   origin <chr>, dest <chr>, air_time <dbl>, distance <dbl>, hour <dbl>,
## #   minute <dbl>, time_hour <dttm>

Departed between midnight and 6 a.m. (inclusive)

filter(flights, between(dep_time, 0, 6))

## # A tibble: 155 x 19
##     year month   day dep_time sched_dep_time dep_delay arr_time
##    <int> <int> <int>    <int>          <int>     <dbl>    <int>
##  1  2013     1     9        2           2359         3      432
##  2  2013     1    10        3           2359         4      426
##  3  2013     1    13        1           2249        72      108
##  4  2013     1    13        2           2359         3      502
##  5  2013     1    13        3           2030       213      340
##  6  2013     1    16        2           2125       157      119
##  7  2013     1    16        3           1946       257      212
##  8  2013     1    22        5           2359         6      452
##  9  2013     1    30        3           2159       124      100
## 10  2013     1    31        1           2100       181      124
## # ... with 145 more rows, and 12 more variables: sched_arr_time <int>,
## #   arr_delay <dbl>, carrier <chr>, flight <int>, tailnum <chr>,
## #   origin <chr>, dest <chr>, air_time <dbl>, distance <dbl>, hour <dbl>,
## #   minute <dbl>, time_hour <dttm>
…
num_range("x", 1:3) : x1, x2, x3 

df <- data_frame(x1 = 1:2, x2 = 1:2, x3 = 3:4, aa = 4:5, uxyz = 2:3, abcd = c(1, 5))
select(df, num_range("x", 1:3), matches("(.)\\1"), ends_with("xyz"))

## # A tibble: 2 x 5
##      x1    x2    x3    aa  uxyz
##   <int> <int> <int> <int> <int>
## 1     1     1     3     4     2
## 2     2     2     4     5     3

rename(flights, tail_num = tailnum)

## # A tibble: 336,776 x 19
##     year month   day dep_time sched_dep_time dep_delay arr_time
##    <int> <int> <int>    <int>          <int>     <dbl>    <int>
##  1  2013     1     1      517            515         2      830
##  2  2013     1     1      533            529         4      850
##  3  2013     1     1      542            540         2      923
##  4  2013     1     1      544            545        -1     1004
##  5  2013     1     1      554            600        -6      812
##  6  2013     1     1      554            558        -4      740
##  7  2013     1     1      555            600        -5      913
##  8  2013     1     1      557            600        -3      709
##  9  2013     1     1      557            600        -3      838
## 10  2013     1     1      558            600        -2      753
## # ... with 336,766 more rows, and 12 more variables: sched_arr_time <int>,
## #   arr_delay <dbl>, carrier <chr>, flight <int>, tail_num <chr>,
## #   origin <chr>, dest <chr>, air_time <dbl>, distance <dbl>, hour <dbl>,
## #   minute <dbl>, time_hour <dttm>

everything()          .

select(flights, time_hour, air_time, everything())

## # A tibble: 336,776 x 19
##    time_hour           air_time  year month   day dep_time sched_dep_time
##    <dttm>                 <dbl> <int> <int> <int>    <int>          <int>
##  1 2013-01-01 05:00:00      227  2013     1     1      517            515
##  2 2013-01-01 05:00:00      227  2013     1     1      533            529
##  3 2013-01-01 05:00:00      160  2013     1     1      542            540
##  4 2013-01-01 05:00:00      183  2013     1     1      544            545
##  5 2013-01-01 06:00:00      116  2013     1     1      554            600
##  6 2013-01-01 05:00:00      150  2013     1     1      554            558
##  7 2013-01-01 06:00:00      158  2013     1     1      555            600
##  8 2013-01-01 06:00:00       53  2013     1     1      557            600
##  9 2013-01-01 06:00:00      140  2013     1     1      557            600
## 10 2013-01-01 06:00:00      138  2013     1     1      558            600
## # ... with 336,766 more rows, and 12 more variables: dep_delay <dbl>,
## #   arr_time <int>, sched_arr_time <int>, arr_delay <dbl>, carrier <chr>,
## #   flight <int>, tailnum <chr>, origin <chr>, dest <chr>, distance <dbl>,
## #   hour <dbl>, minute <dbl>

select()    .

one_of()   "     

vars <- c(
  "year", "month", "day", "dep_delay", "arr_delay"
)
select(flights, one_of(vars))

## # A tibble: 336,776 x 5
##     year month   day dep_delay arr_delay
##    <int> <int> <int>     <dbl>     <dbl>
##  1  2013     1     1         2        11
##  2  2013     1     1         4        20
##  3  2013     1     1         2        33
##  4  2013     1     1        -1       -18
##  5  2013     1     1        -6       -25
##  6  2013     1     1        -4        12
##  7  2013     1     1        -5        19
##  8  2013     1     1        -3       -14
##  9  2013     1     1        -3        -8
## 10  2013     1     1        -2         8
## # ... with 336,766 more rows
…
  : <. <=, >, >=, !, =

 : min_rank(), row_number(), dense_rank(), percent_rank(), cume_dist()

2.6 Exercisese

Currently dep_time and sched_dep_time are convenient to look at, but hard to compute with because theyre not really continuous numbers. Convert them to a more convenient representation of number of minutes since midnight.

517 5 17  517    .    .

mutate(flights, sched_dep_time = (sched_dep_time %/% 100) * 60 + sched_dep_time %% 100,
       dep_time = (dep_time %/% 100) * 60 + dep_time %% 100)

## # A tibble: 336,776 x 19
##     year month   day dep_time sched_dep_time dep_delay arr_time
##    <int> <int> <int>    <dbl>          <dbl>     <dbl>    <int>
##  1  2013     1     1      317            315         2      830
##  2  2013     1     1      333            329         4      850
##  3  2013     1     1      342            340         2      923
##  4  2013     1     1      344            345        -1     1004
##  5  2013     1     1      354            360        -6      812
##  6  2013     1     1      354            358        -4      740
##  7  2013     1     1      355            360        -5      913
##  8  2013     1     1      357            360        -3      709
##  9  2013     1     1      357            360        -3      838
## 10  2013     1     1      358            360        -2      753
## # ... with 336,766 more rows, and 12 more variables: sched_arr_time <int>,
## #   arr_delay <dbl>, carrier <chr>, flight <int>, tailnum <chr>,
## #   origin <chr>, dest <chr>, air_time <dbl>, distance <dbl>, hour <dbl>,
## #   minute <dbl>, time_hour <dttm>
…
1     . 1     .
 arrtime - deptime      .        .

22     1     3   -21  .    24     .    9 12 36 - 9 = 27    24     .

flights %>% 
  mutate(dep_time = (dep_time %/% 100) * 60 + (dep_time %% 100),
         sched_dep_time = (sched_dep_time %/% 100) * 60 + (sched_dep_time %% 100),
         arr_time = (arr_time %/% 100) * 60 + (arr_time %% 100),
         sched_arr_time = (sched_arr_time %/% 100) * 60 + (sched_arr_time %% 100)) %>%
  transmute(diff = (arr_time + 60*24 - dep_time ) %% (60*24) - air_time) %>% 
  arrange(diff)

## # A tibble: 336,776 x 1
##     diff
##    <dbl>
##  1  -345
##  2  -345
##  3  -345
##  4  -345
##  5  -344
##  6  -344
##  7  -344
##  8  -344
##  9  -344
## 10  -343
## # ... with 336,766 more rows
…
  : mean(x), median(x)

 subsetting  .

not_cancelled %>%
  group_by(year, month, day) %>%
  summarize(
    # average delay:
    avg_delay1 = mean(arr_delay),
    # average positive delay:
    avg_delay2 = mean(arr_delay[arr_delay > 0])
  )

## # A tibble: 365 x 5
## # Groups:   year, month [?]
##     year month   day avg_delay1 avg_delay2
##    <int> <int> <int>      <dbl>      <dbl>
##  1  2013     1     1     12.7         32.5
##  2  2013     1     2     12.7         32.0
##  3  2013     1     3      5.73        27.7
##  4  2013     1     4     -1.93        28.3
##  5  2013     1     5     -1.53        22.6
##  6  2013     1     6      4.24        24.4
##  7  2013     1     7     -4.95        27.8
##  8  2013     1     8     -3.23        20.8
##  9  2013     1     9     -0.264       25.6
## 10  2013     1    10     -5.90        27.3
## # ... with 355 more rows
…
http://eurekastatistics.com/using-the-median-absolute-deviation-to-find-outliers/

  : min(x), qunatile(x, 0.25), max(x)

  : first(x), nth(x, 2), last(x), range(x)

counts : sum(!is.na(x)), n_distinct(x), count(tailnum, wt = distance) , mean(x)       .

2.7.2 Grouping by Multiple Variables

daily <- flights %>% group_by(year, month, day)
(per_day <- summarise(daily, flights = n()))

## # A tibble: 365 x 4
## # Groups:   year, month [?]
##     year month   day flights
##    <int> <int> <int>   <int>
##  1  2013     1     1     842
##  2  2013     1     2     943
##  3  2013     1     3     914
##  4  2013     1     4     915
##  5  2013     1     5     720
##  6  2013     1     6     832
##  7  2013     1     7     933
##  8  2013     1     8     899
##  9  2013     1     9     902
## 10  2013     1    10     932
## # ... with 355 more rows
…
 A flight is 15 minutes early 50% of the time, and 15 minutes late 50% of the time.

  15    15      . , -15 ~ 15  .

 A flight   .

flights %>% 
  group_by(flight) %>% 
  summarise(
    early_15_min = mean(arr_delay <= -15, na.rm = TRUE),
    late_15_min = mean(arr_delay >=15, na.rm = TRUE)) %>% 
  filter(early_15_min == 0.5, late_15_min == 0.5)

## # A tibble: 21 x 3
##    flight early_15_min late_15_min
##     <int>        <dbl>       <dbl>
##  1    107          0.5         0.5
##  2   2072          0.5         0.5
##  3   2366          0.5         0.5
##  4   2500          0.5         0.5
##  5   2552          0.5         0.5
##  6   3495          0.5         0.5
##  7   3505          0.5         0.5
##  8   3518          0.5         0.5
##  9   3544          0.5         0.5
## 10   3651          0.5         0.5
## # ... with 11 more rows
…
## # A tibble: 0 x 3
## # ... with 3 variables: flight <int>, on_time <dbl>, late_time <dbl>

Come up with another approach that will give you the same output as not_cancelled %>% count(dest) and not_cancelled %>% count(tailnum, wt = distance) (without using count()).

not_cancelled %>% 
  group_by(dest) %>% 
  summarise(n = n())

## # A tibble: 104 x 2
##    dest      n
##    <chr> <int>
##  1 ABQ     254
##  2 ACK     264
##  3 ALB     418
##  4 ANC       8
##  5 ATL   16837
##  6 AUS    2411
##  7 AVL     261
##  8 BDL     412
##  9 BGR     358
## 10 BHM     269
## # ... with 94 more rows

not_cancelled %>% 
  group_by(tailnum) %>% 
  summarise(sum_dist = sum(distance, na.rm = TRUE))

## # A tibble: 4,037 x 2
##    tailnum sum_dist
##    <chr>      <dbl>
##  1 D942DN      3418
##  2 N0EGMQ    239143
##  3 N10156    109664
##  4 N102UW     25722
##  5 N103US     24619
##  6 N104UW     24616
##  7 N10575    139903
##  8 N105UW     23618
##  9 N107US     21677
## 10 N108UW     32070
## # ... with 4,027 more rows
…
sd  mad   0, 1, 2   . ,   .

For each plane, count the number of flights before the first delay of greater than 1 hour.

cumany() .

flights %>%
    mutate(arr_date = lubridate::make_datetime(year, month, day)) %>%
    group_by(tailnum) %>%
    arrange(arr_date) %>%
    filter(!cumany(arr_delay > 60)) %>%
    summarise(n = n()) %>% 
    arrange(desc(n))

## # A tibble: 3,748 x 2
##    tailnum     n
##    <chr>   <int>
##  1 N705TW     97
##  2 N765US     97
##  3 N12125     94
##  4 N320AA     94
##  5 N13110     91
##  6 N3763D     82
##  7 N58101     82
##  8 N17122     81
##  9 N961UW     80
## 10 N950UW     79
## # ... with 3,738 more rows
2.8.1 Grouped Mutates (and Filters)

Find the worst members of each group :

flights_sml <- select(flights,
                      year:day,
                      ends_with("delay"),
                      distance,
                      air_time
)
flights_sml %>% 
  group_by(year, month, day) %>% 
  filter(rank(desc(arr_delay)) < 10)

## # A tibble: 3,306 x 7
## # Groups:   year, month, day [365]
##     year month   day dep_delay arr_delay distance air_time
##    <int> <int> <int>     <dbl>     <dbl>    <dbl>    <dbl>
##  1  2013     1     1       853       851      184       41
##  2  2013     1     1       290       338     1134      213
##  3  2013     1     1       260       263      266       46
##  4  2013     1     1       157       174      213       60
##  5  2013     1     1       216       222      708      121
##  6  2013     1     1       255       250      589      115
##  7  2013     1     1       285       246     1085      146
##  8  2013     1     1       192       191      199       44
##  9  2013     1     1       379       456     1092      222
## 10  2013     1     2       224       207      550       94
## # ... with 3,296 more rows

Find all groups bigger than a threshold :

popular_dests <- flights %>% 
  group_by(dest) %>% 
  filter(n() > 365) 

Standardize to compute per group metrics :

popular_dests %>% 
  filter(arr_delay > 0) %>% 
  mutate(prop_delay = arr_delay / sum(arr_delay)) %>% 
  select(year:day, dest, arr_delay, prop_delay)

## # A tibble: 131,106 x 6
## # Groups:   dest [77]
##     year month   day dest  arr_delay prop_delay
##    <int> <int> <int> <chr>     <dbl>      <dbl>
##  1  2013     1     1 IAH          11  0.000111 
##  2  2013     1     1 IAH          20  0.000201 
##  3  2013     1     1 MIA          33  0.000235 
##  4  2013     1     1 ORD          12  0.0000424
##  5  2013     1     1 FLL          19  0.0000938
##  6  2013     1     1 ORD           8  0.0000283
##  7  2013     1     1 LAX           7  0.0000344
##  8  2013     1     1 DFW          31  0.000282 
##  9  2013     1     1 ATL          12  0.0000400
## 10  2013     1     1 DTW          16  0.000116 
## # ... with 131,096 more rows
grouped mutates filters       .
vignette("window-functions") .

2.9 Exercises

Which plane (tailnum) has the worst on-time record?

flights %>%
  group_by(tailnum) %>%
  summarise(prop_on_time = sum(arr_delay <= 30 & !is.na(arr_delay))/n(),
            mean_arr_delay = mean(arr_delay, na.rm=TRUE),
            flights = n()) %>%
  arrange(prop_on_time, desc(mean_arr_delay))

## # A tibble: 4,044 x 4
##    tailnum prop_on_time mean_arr_delay flights
##    <chr>          <dbl>          <dbl>   <int>
##  1 N844MH             0            320       1
##  2 N911DA             0            294       1
##  3 N922EV             0            276       1
##  4 N587NW             0            264       1
##  5 N851NW             0            219       1
##  6 N928DN             0            201       1
##  7 N7715E             0            188       1
##  8 N654UA             0            185       1
##  9 N427SW             0            157       1
## 10 N136DL             0            146       1
## # ... with 4,034 more rows
…
  .

For each destination, compute the total minutes of delay. For each flight, compute the proportion of the total delay for its destination.

flights %>% 
  group_by(dest, flight) %>% 
  summarise(tot_arr_delay = sum(arr_delay, na.rm = TRUE),
         tot_dep_delay = sum(dep_delay, na.rm = TRUE)) %>% 
  group_by(dest) %>% 
  mutate(avg_arr_delay = tot_arr_delay / sum(tot_arr_delay),
         avg_dep_delay = tot_dep_delay / sum(tot_dep_delay)) %>% 
  select(dest, flight, ends_with("arr_delay"), ends_with("dep_delay"))

## # A tibble: 11,467 x 6
## # Groups:   dest [105]
##    dest  flight tot_arr_delay avg_arr_delay tot_dep_delay avg_dep_delay
##    <chr>  <int>         <dbl>         <dbl>         <dbl>         <dbl>
##  1 ABQ       65           605       0.544            1239      0.355   
##  2 ABQ     1505           508       0.456            2251      0.645   
##  3 ACK     1191           652       0.509             614      0.359   
##  4 ACK     1195            20       0.0156             33      0.0193  
##  5 ACK     1291           234       0.183             250      0.146   
##  6 ACK     1491           375       0.293             814      0.476   
##  7 ALB     3256           -12      -0.00199             6      0.000606
##  8 ALB     3260           111       0.0184            119      0.0120  
##  9 ALB     3264           -47      -0.00781             1      0.000101
## 10 ALB     3811           570       0.0947            570      0.0576  
## # ... with 11,457 more rows
…
Look at each destination. Can you find flights that are suspiciously fast? (That is, flights that represent a potential data entry error.) Compute the air time of a flight relative to the shortest flight to that destination. Which flights were most delayed in the air?

zmad <- function(x) (x - median(x, na.rm = TRUE)) / mad(x, na.rm = TRUE)
flights %>% 
  group_by(dest) %>% 
  mutate(zmad_air = abs(zmad(air_time))) %>% 
  filter(zmad_air > 3.5) %>% 
  select(dest, air_time, zmad_air) %>% 
  arrange(air_time, desc(zmad_air))

## # A tibble: 1,900 x 3
## # Groups:   dest [89]
##    dest  air_time zmad_air
##    <chr>    <dbl>    <dbl>
##  1 BOS         21     3.82
##  2 BTV         34     4.05
##  3 RIC         35     4.05
##  4 BTV         35     3.71
##  5 BDL         36     3.71
##  6 BUF         38     3.82
##  7 BDL         39     4.72
##  8 BDL         41     5.40
##  9 ALB         42     3.71
## 10 ALB         43     4.05
## # ... with 1,890 more rows
…
