R for Data Science
…
## [1] Dec Apr Jan Mar
## Levels: Dec Apr Jan Mar

# fct_inorder : Reorder factors levels by first appearance or frequency
f2 <- x1 %>% factor() %>% fct_inorder()

levels(f2)

## [1] "Dec" "Apr" "Jan" "Mar"

1.1 General Social Survey

gss_cat

## # A tibble: 21,483 x 9
##     year marital     age race  rincome   partyid    relig    denom   tvhours
##    <int> <fct>     <int> <fct> <fct>     <fct>      <fct>    <fct>     <int>
##  1  2000 Never ma~    26 White $8000 to~ Ind,near ~ Protest~ Southe~      12
##  2  2000 Divorced     48 White $8000 to~ Not str r~ Protest~ Baptis~      NA
##  3  2000 Widowed      67 White Not appl~ Independe~ Protest~ No den~       2
##  4  2000 Never ma~    39 White Not appl~ Ind,near ~ Orthodo~ Not ap~       4
##  5  2000 Divorced     25 White Not appl~ Not str d~ None     Not ap~       1
##  6  2000 Married      25 White $20000 -~ Strong de~ Protest~ Southe~      NA
##  7  2000 Never ma~    36 White $25000 o~ Not str r~ Christi~ Not ap~       3
##  8  2000 Divorced     44 White $7000 to~ Ind,near ~ Protest~ Luther~      NA
##  9  2000 Married      44 White $25000 o~ Not str d~ Protest~ Other         0
## 10  2000 Married      47 White $25000 o~ Strong re~ Protest~ Southe~       3
## # ... with 21,473 more rows
…
## [1] "2017-01-31 08:01:00 UTC"

#  
ymd(20180727, tz = "UTC")

## [1] "2018-07-27 UTC"

2.1.2 From Individual Components

   date-time        .

flights %>% 
  select(year,month,day,hour,minute)

## # A tibble: 336,776 x 5
##     year month   day  hour minute
##    <int> <int> <int> <dbl>  <dbl>
##  1  2013     1     1     5     15
##  2  2013     1     1     5     29
##  3  2013     1     1     5     40
##  4  2013     1     1     5     45
##  5  2013     1     1     6      0
##  6  2013     1     1     5     58
##  7  2013     1     1     6      0
##  8  2013     1     1     6      0
##  9  2013     1     1     6      0
## 10  2013     1     1     6      0
## # ... with 336,766 more rows

flights %>% 
  select(year,month,day,hour,minute) %>% 
  mutate(departure = make_datetime(year, month, day, hour, minute))

## # A tibble: 336,776 x 6
##     year month   day  hour minute departure          
##    <int> <int> <int> <dbl>  <dbl> <dttm>             
##  1  2013     1     1     5     15 2013-01-01 05:15:00
##  2  2013     1     1     5     29 2013-01-01 05:29:00
##  3  2013     1     1     5     40 2013-01-01 05:40:00
##  4  2013     1     1     5     45 2013-01-01 05:45:00
##  5  2013     1     1     6      0 2013-01-01 06:00:00
##  6  2013     1     1     5     58 2013-01-01 05:58:00
##  7  2013     1     1     6      0 2013-01-01 06:00:00
##  8  2013     1     1     6      0 2013-01-01 06:00:00
##  9  2013     1     1     6      0 2013-01-01 06:00:00
## 10  2013     1     1     6      0 2013-01-01 06:00:00
## # ... with 336,766 more rows
…
flights_dt

## # A tibble: 328,063 x 9
##    origin dest  dep_delay arr_delay dep_time            sched_dep_time     
##    <chr>  <chr>     <dbl>     <dbl> <dttm>              <dttm>             
##  1 EWR    IAH           2        11 2013-01-01 05:17:00 2013-01-01 05:15:00
##  2 LGA    IAH           4        20 2013-01-01 05:33:00 2013-01-01 05:29:00
##  3 JFK    MIA           2        33 2013-01-01 05:42:00 2013-01-01 05:40:00
##  4 JFK    BQN          -1       -18 2013-01-01 05:44:00 2013-01-01 05:45:00
##  5 LGA    ATL          -6       -25 2013-01-01 05:54:00 2013-01-01 06:00:00
##  6 EWR    ORD          -4        12 2013-01-01 05:54:00 2013-01-01 05:58:00
##  7 EWR    FLL          -5        19 2013-01-01 05:55:00 2013-01-01 06:00:00
##  8 LGA    IAD          -3       -14 2013-01-01 05:57:00 2013-01-01 06:00:00
##  9 JFK    MCO          -3        -8 2013-01-01 05:57:00 2013-01-01 06:00:00
## 10 LGA    ORD          -2         8 2013-01-01 05:58:00 2013-01-01 06:00:00
## # ... with 328,053 more rows, and 3 more variables: arr_time <dttm>,
## #   sched_arr_time <dttm>, air_time <dbl>
…
    ..

Compare dep_time, sched_dep_time, and dep_delay. Are they
consistent? Explain your findings.

flights_dt %>% 
  mutate(dep_time_ = sched_dep_time + dep_delay* 60) %>% 
  filter(dep_time_ != dep_time) %>% 
  select(dep_time, dep_time_, sched_dep_time, dep_delay)

## # A tibble: 1,205 x 4
##    dep_time            dep_time_           sched_dep_time      dep_delay
##    <dttm>              <dttm>              <dttm>                  <dbl>
##  1 2013-01-01 08:48:00 2013-01-02 08:48:00 2013-01-01 18:35:00       853
##  2 2013-01-02 00:42:00 2013-01-03 00:42:00 2013-01-02 23:59:00        43
##  3 2013-01-02 01:26:00 2013-01-03 01:26:00 2013-01-02 22:50:00       156
##  4 2013-01-03 00:32:00 2013-01-04 00:32:00 2013-01-03 23:59:00        33
##  5 2013-01-03 00:50:00 2013-01-04 00:50:00 2013-01-03 21:45:00       185
##  6 2013-01-03 02:35:00 2013-01-04 02:35:00 2013-01-03 23:59:00       156
##  7 2013-01-04 00:25:00 2013-01-05 00:25:00 2013-01-04 23:59:00        26
##  8 2013-01-04 01:06:00 2013-01-05 01:06:00 2013-01-04 22:45:00       141
##  9 2013-01-05 00:14:00 2013-01-06 00:14:00 2013-01-05 23:59:00        15
## 10 2013-01-05 00:37:00 2013-01-06 00:37:00 2013-01-05 22:30:00       127
## # ... with 1,195 more rows
…
## # A tibble: 0 x 4
## # ... with 4 variables: dep_delay <dbl>, dep_time <dttm>,
## #   sched_dep_time <dttm>, cal_delay <dbl>

Compare air_time with the duration between the departure
and arrival. Explain your findings. (Hint: consider the location of the airport.)

flights_dt %>% 
  mutate(cal_air_time = as.numeric(arr_time - dep_time)) %>% 
  select(contains("air_time"))

## # A tibble: 328,063 x 2
##    air_time cal_air_time
##       <dbl>        <dbl>
##  1      227          193
##  2      227          197
##  3      160          221
##  4      183          260
##  5      116          138
##  6      150          106
##  7      158          198
##  8       53           72
##  9      140          161
## 10      138          115
## # ... with 328,053 more rows

   1    .

flights_dt %>%
  left_join(airports, by = c("origin" = "faa")) %>%
  left_join(airports, by = c("dest" = "faa"), suffix = c(".origin",".dest")) %>%
  select(dep_time, arr_time, air_time, contains("tzone")) %>% 
  print(width = Inf)

## # A tibble: 328,063 x 5
##    dep_time            arr_time            air_time tzone.origin    
##    <dttm>              <dttm>                 <dbl> <chr>           
##  1 2013-01-01 05:17:00 2013-01-01 08:30:00      227 America/New_York
##  2 2013-01-01 05:33:00 2013-01-01 08:50:00      227 America/New_York
##  3 2013-01-01 05:42:00 2013-01-01 09:23:00      160 America/New_York
##  4 2013-01-01 05:44:00 2013-01-01 10:04:00      183 America/New_York
##  5 2013-01-01 05:54:00 2013-01-01 08:12:00      116 America/New_York
##  6 2013-01-01 05:54:00 2013-01-01 07:40:00      150 America/New_York
##  7 2013-01-01 05:55:00 2013-01-01 09:13:00      158 America/New_York
##  8 2013-01-01 05:57:00 2013-01-01 07:09:00       53 America/New_York
##  9 2013-01-01 05:57:00 2013-01-01 08:38:00      140 America/New_York
## 10 2013-01-01 05:58:00 2013-01-01 07:53:00      138 America/New_York
##    tzone.dest      
##    <chr>           
##  1 America/Chicago 
##  2 America/Chicago 
##  3 America/New_York
##  4 <NA>            
##  5 America/New_York
##  6 America/Chicago 
##  7 America/New_York
##  8 America/New_York
##  9 America/New_York
## 10 America/Chicago 
## # ... with 328,053 more rows
…
## [1] "2009-08-07 04:00:01 UTC" "2009-08-06 23:02:03 UTC"

flights_dt %>% 
  left_join(airports, by = c("origin" = "faa")) %>% 
  left_join(airports, by = c("dest" = "faa"), suffix = c(".origin", ".dest")) %>% 
  select(dep_time, arr_time, air_time, contains("tzone")) %>%
  filter(!is.na(tzone.origin), !is.na(tzone.dest)) %>% 
  mutate(dep_time = force_tzs(dep_time, tzones = tzone.origin),
         arr_time = force_tzs(arr_time, tzones = tzone.dest),
         cal_air_time = as.numeric(arr_time - dep_time) * 60) %>% select(contains("air"))

## # A tibble: 320,503 x 2
##    air_time cal_air_time
##       <dbl>        <dbl>
##  1      227        15180
##  2      227        15420
##  3      160        13260
##  4      116         8280
##  5      150         9960
##  6      158        11880
##  7       53         4320
##  8      140         9660
##  9      138        10500
## 10      149        10260
## # ... with 320,493 more rows
…
# A leap year
ymd("2016-01-01") + dyears(1)

## [1] "2016-12-31"

ymd("2016-01-01") + years(1)

## [1] "2017-01-01"

    periods  .          .

flights_dt %>% 
  filter(arr_time < dep_time)

## # A tibble: 10,633 x 9
##    origin dest  dep_delay arr_delay dep_time            sched_dep_time     
##    <chr>  <chr>     <dbl>     <dbl> <dttm>              <dttm>             
##  1 EWR    BQN           9        -4 2013-01-01 19:29:00 2013-01-01 19:20:00
##  2 JFK    DFW          59        NA 2013-01-01 19:39:00 2013-01-01 18:40:00
##  3 EWR    TPA          -2         9 2013-01-01 20:58:00 2013-01-01 21:00:00
##  4 EWR    SJU          -6       -12 2013-01-01 21:02:00 2013-01-01 21:08:00
##  5 EWR    SFO          11       -14 2013-01-01 21:08:00 2013-01-01 20:57:00
##  6 LGA    FLL         -10        -2 2013-01-01 21:20:00 2013-01-01 21:30:00
##  7 EWR    MCO          41        43 2013-01-01 21:21:00 2013-01-01 20:40:00
##  8 JFK    LAX          -7       -24 2013-01-01 21:28:00 2013-01-01 21:35:00
##  9 EWR    FLL          49        28 2013-01-01 21:34:00 2013-01-01 20:45:00
## 10 EWR    FLL          -9       -14 2013-01-01 21:36:00 2013-01-01 21:45:00
## # ... with 10,623 more rows, and 3 more variables: arr_time <dttm>,
## #   sched_arr_time <dttm>, air_time <dbl>
…
