…
purrr을 사용해서 이전에 정의된 모든 모델의 거리를 계산할 수 있다. 길이가 2인 수치 벡터로서 모델을 기대하는 함수 거리이기
때문에 헬퍼 함수가 필요하다.

``` r
sim1_dist <- function(a1, a2) {
  measure_distance(c(a1, a2), sim1)
}

models <- models %>% 
  mutate(dist = map2_dbl(a1, a2, sim1_dist))
models
```

    ## # A tibble: 250 x 3
    ##        a1      a2  dist
    ##     <dbl>   <dbl> <dbl>
    ##  1  13.2   4.48   23.5 
    ##  2   7.18  3.49   11.8 
    ##  3 -19.6   2.49   21.5 
    ##  4  28.8  -3.45   16.9 
    ##  5  15.9   0.0115  6.25
    ##  6 -15.6  -4.07   56.4 
    ##  7  13.9   1.81    8.64
    ##  8 -18.7  -0.551  38.0 
    ##  9   5.44  1.04    5.63
    ## 10   5.08  3.61   10.7 
    ## # ... with 240 more rows
…
### Residuals

예측치의 뒤집힌 면은 잔차이다. 예측치는 모델이 포착한 패턴을 말해주고 잔차는 어떤 모델이 놓쳤는지를 알려준다. 잔차는 단지 먼저
계산된 관측값과 예측값 사이의 거리이다.

잔차는 `add_residuals()`로 추가할 수 있다. 하지만 원본 데이터셋을 사용하지 만들어진 grid를 사용하지 않는다.
왜냐하면 잔차를 계산하기 위해 실제 y값을 필요로 하기 때문이다.

``` r
sim1 <- sim1 %>% 
  add_residuals(sim1_mod)
sim1
```

    ## # A tibble: 30 x 3
    ##        x     y    resid
    ##    <int> <dbl>    <dbl>
    ##  1     1  4.20 -2.07   
    ##  2     1  7.51  1.24   
    ##  3     1  2.13 -4.15   
    ##  4     2  8.99  0.665  
    ##  5     2 10.2   1.92   
    ##  6     2 11.3   2.97   
    ##  7     3  7.36 -3.02   
    ##  8     3 10.5   0.130  
    ##  9     3 10.5   0.136  
    ## 10     4 12.4   0.00763
    ## # ... with 20 more rows
…
<!-- end list -->

``` r
grid <- sim3 %>% 
  data_grid(x1, x2) %>% 
  gather_predictions(mod1, mod2)
grid
```

    ## # A tibble: 80 x 4
    ##    model    x1 x2     pred
    ##    <chr> <int> <fct> <dbl>
    ##  1 mod1      1 a      1.67
    ##  2 mod1      1 b      4.56
    ##  3 mod1      1 c      6.48
    ##  4 mod1      1 d      4.03
    ##  5 mod1      2 a      1.48
    ##  6 mod1      2 b      4.37
    ##  7 mod1      2 c      6.28
    ##  8 mod1      2 d      3.84
    ##  9 mod1      3 a      1.28
    ## 10 mod1      3 b      4.17
    ## # ... with 70 more rows
…
``` r
mod1 <- lm(y ~ x1 + x2, data = sim4)
mod2 <- lm(y ~ x1 * x2, data = sim4)

grid <- sim4 %>% 
  data_grid(
    x1 = seq_range(x1, 5),
    x2 = seq_range(x2, 5)
  ) %>% 
  gather_predictions(mod1, mod2)
grid
```

    ## # A tibble: 50 x 4
    ##    model    x1    x2   pred
    ##    <chr> <dbl> <dbl>  <dbl>
    ##  1 mod1   -1    -1    0.996
    ##  2 mod1   -1    -0.5 -0.395
    ##  3 mod1   -1     0   -1.79 
    ##  4 mod1   -1     0.5 -3.18 
    ##  5 mod1   -1     1   -4.57 
    ##  6 mod1   -0.5  -1    1.91 
    ##  7 mod1   -0.5  -0.5  0.516
    ##  8 mod1   -0.5   0   -0.875
    ##  9 mod1   -0.5   0.5 -2.27 
    ## 10 mod1   -0.5   1   -3.66 
    ## # ... with 40 more rows
…
## What Affects the Number of Daily Flights?

``` r
daily <- flights %>% 
  mutate(date = make_date(year, month, day)) %>% 
  group_by(date) %>% 
  summarise(n = n())
daily
```

    ## # A tibble: 365 x 2
    ##    date           n
    ##    <date>     <int>
    ##  1 2013-01-01   842
    ##  2 2013-01-02   943
    ##  3 2013-01-03   914
    ##  4 2013-01-04   915
    ##  5 2013-01-05   720
    ##  6 2013-01-06   832
    ##  7 2013-01-07   933
    ##  8 2013-01-08   899
    ##  9 2013-01-09   902
    ## 10 2013-01-10   932
    ## # ... with 355 more rows
…
