R for Data Science
…
1.7 Case Study

tuberculosis(TB) .

who

## # A tibble: 7,240 x 60
##    country iso2  iso3   year new_sp_m014 new_sp_m1524 new_sp_m2534
##    <chr>   <chr> <chr> <int>       <int>        <int>        <int>
##  1 Afghan~ AF    AFG    1980          NA           NA           NA
##  2 Afghan~ AF    AFG    1981          NA           NA           NA
##  3 Afghan~ AF    AFG    1982          NA           NA           NA
##  4 Afghan~ AF    AFG    1983          NA           NA           NA
##  5 Afghan~ AF    AFG    1984          NA           NA           NA
##  6 Afghan~ AF    AFG    1985          NA           NA           NA
##  7 Afghan~ AF    AFG    1986          NA           NA           NA
##  8 Afghan~ AF    AFG    1987          NA           NA           NA
##  9 Afghan~ AF    AFG    1988          NA           NA           NA
## 10 Afghan~ AF    AFG    1989          NA           NA           NA
## # ... with 7,230 more rows, and 53 more variables: new_sp_m3544 <int>,
## #   new_sp_m4554 <int>, new_sp_m5564 <int>, new_sp_m65 <int>,
## #   new_sp_f014 <int>, new_sp_f1524 <int>, new_sp_f2534 <int>,
## #   new_sp_f3544 <int>, new_sp_f4554 <int>, new_sp_f5564 <int>,
## #   new_sp_f65 <int>, new_sn_m014 <int>, new_sn_m1524 <int>,
## #   new_sn_m2534 <int>, new_sn_m3544 <int>, new_sn_m4554 <int>,
## #   new_sn_m5564 <int>, new_sn_m65 <int>, new_sn_f014 <int>,
## #   new_sn_f1524 <int>, new_sn_f2534 <int>, new_sn_f3544 <int>,
## #   new_sn_f4554 <int>, new_sn_f5564 <int>, new_sn_f65 <int>,
…
year  

     ,       .

cell case   case   .

who1 <- who %>%
  gather(
    new_sp_m014:newrel_f65, key = "key",
    value = "cases",
    na.rm = TRUE
  )
who1

## # A tibble: 76,046 x 6
##    country     iso2  iso3   year key         cases
##  * <chr>       <chr> <chr> <int> <chr>       <int>
##  1 Afghanistan AF    AFG    1997 new_sp_m014     0
##  2 Afghanistan AF    AFG    1998 new_sp_m014    30
##  3 Afghanistan AF    AFG    1999 new_sp_m014     8
##  4 Afghanistan AF    AFG    2000 new_sp_m014    52
##  5 Afghanistan AF    AFG    2001 new_sp_m014   129
##  6 Afghanistan AF    AFG    2002 new_sp_m014    90
##  7 Afghanistan AF    AFG    2003 new_sp_m014   127
##  8 Afghanistan AF    AFG    2004 new_sp_m014   139
##  9 Afghanistan AF    AFG    2005 new_sp_m014   151
## 10 Afghanistan AF    AFG    2006 new_sp_m014   193
## # ... with 76,036 more rows

 key       .

who1 %>% 
  count(key)

## # A tibble: 56 x 2
##    key              n
##    <chr>        <int>
##  1 new_ep_f014   1032
##  2 new_ep_f1524  1021
##  3 new_ep_f2534  1021
##  4 new_ep_f3544  1021
##  5 new_ep_f4554  1017
##  6 new_ep_f5564  1017
##  7 new_ep_f65    1014
##  8 new_ep_m014   1038
##  9 new_ep_m1524  1026
## 10 new_ep_m2534  1020
## # ... with 46 more rows
…
    .

 014 = 014 years old
 1524 = 1524 years old
 2534 = 2534 years old
 3544 = 3544 years old
 4554 = 4554 years old
 5564 = 5564 years old
 65 = 65 or older

who2 <- who1 %>%
  mutate(key = str_replace(key, "newrel", "new_rel"))
who2

## # A tibble: 76,046 x 6
##    country     iso2  iso3   year key         cases
##    <chr>       <chr> <chr> <int> <chr>       <int>
##  1 Afghanistan AF    AFG    1997 new_sp_m014     0
##  2 Afghanistan AF    AFG    1998 new_sp_m014    30
##  3 Afghanistan AF    AFG    1999 new_sp_m014     8
##  4 Afghanistan AF    AFG    2000 new_sp_m014    52
##  5 Afghanistan AF    AFG    2001 new_sp_m014   129
##  6 Afghanistan AF    AFG    2002 new_sp_m014    90
##  7 Afghanistan AF    AFG    2003 new_sp_m014   127
##  8 Afghanistan AF    AFG    2004 new_sp_m014   139
##  9 Afghanistan AF    AFG    2005 new_sp_m014   151
## 10 Afghanistan AF    AFG    2006 new_sp_m014   193
## # ... with 76,036 more rows

who3 <- who2 %>%
  separate(key, c("new", "type", "sexage"), sep = "_")
who3

## # A tibble: 76,046 x 8
##    country     iso2  iso3   year new   type  sexage cases
##    <chr>       <chr> <chr> <int> <chr> <chr> <chr>  <int>
##  1 Afghanistan AF    AFG    1997 new   sp    m014       0
##  2 Afghanistan AF    AFG    1998 new   sp    m014      30
##  3 Afghanistan AF    AFG    1999 new   sp    m014       8
##  4 Afghanistan AF    AFG    2000 new   sp    m014      52
##  5 Afghanistan AF    AFG    2001 new   sp    m014     129
##  6 Afghanistan AF    AFG    2002 new   sp    m014      90
##  7 Afghanistan AF    AFG    2003 new   sp    m014     127
##  8 Afghanistan AF    AFG    2004 new   sp    m014     139
##  9 Afghanistan AF    AFG    2005 new   sp    m014     151
## 10 Afghanistan AF    AFG    2006 new   sp    m014     193
## # ... with 76,036 more rows
…
## # A tibble: 1 x 2
##   new       n
##   <chr> <int>
## 1 new   76046

who4 <- who3 %>%
  select(-new, -iso2, -iso3)

sexage sex age .

who5 <- who4 %>%
  separate(sexage, c("sex", "age"), sep = 1)
who5

## # A tibble: 76,046 x 6
##    country      year type  sex   age   cases
##    <chr>       <int> <chr> <chr> <chr> <int>
##  1 Afghanistan  1997 sp    m     014       0
##  2 Afghanistan  1998 sp    m     014      30
##  3 Afghanistan  1999 sp    m     014       8
##  4 Afghanistan  2000 sp    m     014      52
##  5 Afghanistan  2001 sp    m     014     129
##  6 Afghanistan  2002 sp    m     014      90
##  7 Afghanistan  2003 sp    m     014     127
##  8 Afghanistan  2004 sp    m     014     139
##  9 Afghanistan  2005 sp    m     014     151
## 10 Afghanistan  2006 sp    m     014     193
## # ... with 76,036 more rows

who %>% 
  gather(code, value, new_sp_m014:newrel_f65, na.rm = TRUE) %>% 
  mutate(
    code = stringr::str_replace(code, "newrel", "new_rel")
  ) %>% 
  separate(code, c("new", "var", "sexage")) %>% 
  select(-new, -iso2, -iso3) %>% 
  separate(sexage, c("sex", "age"), sep = 1)

## # A tibble: 76,046 x 6
##    country      year var   sex   age   value
##    <chr>       <int> <chr> <chr> <chr> <int>
##  1 Afghanistan  1997 sp    m     014       0
##  2 Afghanistan  1998 sp    m     014      30
##  3 Afghanistan  1999 sp    m     014       8
##  4 Afghanistan  2000 sp    m     014      52
##  5 Afghanistan  2001 sp    m     014     129
##  6 Afghanistan  2002 sp    m     014      90
##  7 Afghanistan  2003 sp    m     014     127
##  8 Afghanistan  2004 sp    m     014     139
##  9 Afghanistan  2005 sp    m     014     151
## 10 Afghanistan  2006 sp    m     014     193
## # ... with 76,036 more rows
…
   NA     .

temp <- who %>% 
  gather(code, value, new_sp_m014:newrel_f65) %>% 
  mutate(
    code = stringr::str_replace(code, "newrel", "new_rel")
  ) %>% 
  separate(code, c("new", "var", "sexage")) %>% 
  select(-new, -iso2, -iso3) %>% 
  separate(sexage, c("sex", "age"), sep = 1)

who5 %>% complete(country, year, type, sex, age)

## # A tibble: 416,976 x 6
##    country      year type  sex   age   cases
##    <chr>       <int> <chr> <chr> <chr> <int>
##  1 Afghanistan  1980 ep    f     014      NA
##  2 Afghanistan  1980 ep    f     1524     NA
##  3 Afghanistan  1980 ep    f     2534     NA
##  4 Afghanistan  1980 ep    f     3544     NA
##  5 Afghanistan  1980 ep    f     4554     NA
##  6 Afghanistan  1980 ep    f     5564     NA
##  7 Afghanistan  1980 ep    f     65       NA
##  8 Afghanistan  1980 ep    m     014      NA
##  9 Afghanistan  1980 ep    m     1524     NA
## 10 Afghanistan  1980 ep    m     2534     NA
## # ... with 416,966 more rows
…
airports :   

faa : Federal Aviation Administration

airports

## # A tibble: 1,458 x 8
##    faa   name                     lat    lon   alt    tz dst   tzone        
##    <chr> <chr>                  <dbl>  <dbl> <int> <dbl> <chr> <chr>        
##  1 04G   Lansdowne Airport       41.1  -80.6  1044    -5 A     America/New_~
##  2 06A   Moton Field Municipal~  32.5  -85.7   264    -6 A     America/Chic~
##  3 06C   Schaumburg Regional     42.0  -88.1   801    -6 A     America/Chic~
##  4 06N   Randall Airport         41.4  -74.4   523    -5 A     America/New_~
##  5 09J   Jekyll Island Airport   31.1  -81.4    11    -5 A     America/New_~
##  6 0A9   Elizabethton Municipa~  36.4  -82.2  1593    -5 A     America/New_~
##  7 0G6   Williams County Airpo~  41.5  -84.5   730    -5 A     America/New_~
##  8 0G7   Finger Lakes Regional~  42.9  -76.8   492    -5 A     America/New_~
##  9 0P2   Shoestring Aviation A~  39.8  -76.6  1000    -5 U     America/New_~
## 10 0S9   Jefferson County Intl   48.1 -123.    108    -8 A     America/Los_~
## # ... with 1,448 more rows

planes : tailnum    

planes

## # A tibble: 3,322 x 9
##    tailnum  year type       manufacturer   model  engines seats speed engine
##    <chr>   <int> <chr>      <chr>          <chr>    <int> <int> <int> <chr> 
##  1 N10156   2004 Fixed win~ EMBRAER        EMB-1~       2    55    NA Turbo~
##  2 N102UW   1998 Fixed win~ AIRBUS INDUST~ A320-~       2   182    NA Turbo~
##  3 N103US   1999 Fixed win~ AIRBUS INDUST~ A320-~       2   182    NA Turbo~
##  4 N104UW   1999 Fixed win~ AIRBUS INDUST~ A320-~       2   182    NA Turbo~
##  5 N10575   2002 Fixed win~ EMBRAER        EMB-1~       2    55    NA Turbo~
##  6 N105UW   1999 Fixed win~ AIRBUS INDUST~ A320-~       2   182    NA Turbo~
##  7 N107US   1999 Fixed win~ AIRBUS INDUST~ A320-~       2   182    NA Turbo~
##  8 N108UW   1999 Fixed win~ AIRBUS INDUST~ A320-~       2   182    NA Turbo~
##  9 N109UW   1999 Fixed win~ AIRBUS INDUST~ A320-~       2   182    NA Turbo~
## 10 N110UW   1999 Fixed win~ AIRBUS INDUST~ A320-~       2   182    NA Turbo~
## # ... with 3,312 more rows

weather :     

New York City is one of the largest cities in the world and it has three airports supporting the metropolitan area: John F. Kennedy International Airport (JFK), LaGuardia Airport (LGA) and Newark Liberty International Airport (EWR).
, origin  

weather

## # A tibble: 26,115 x 15
##    origin  year month   day  hour  temp  dewp humid wind_dir wind_speed
##    <chr>  <dbl> <dbl> <int> <int> <dbl> <dbl> <dbl>    <dbl>      <dbl>
##  1 EWR     2013     1     1     1  39.0  26.1  59.4      270      10.4 
##  2 EWR     2013     1     1     2  39.0  27.0  61.6      250       8.06
##  3 EWR     2013     1     1     3  39.0  28.0  64.4      240      11.5 
##  4 EWR     2013     1     1     4  39.9  28.0  62.2      250      12.7 
##  5 EWR     2013     1     1     5  39.0  28.0  64.4      260      12.7 
##  6 EWR     2013     1     1     6  37.9  28.0  67.2      240      11.5 
##  7 EWR     2013     1     1     7  39.0  28.0  64.4      240      15.0 
##  8 EWR     2013     1     1     8  39.9  28.0  62.2      250      10.4 
##  9 EWR     2013     1     1     9  39.9  28.0  62.2      260      15.0 
## 10 EWR     2013     1     1    10  41    28.0  59.6      260      13.8 
## # ... with 26,105 more rows, and 5 more variables: wind_gust <dbl>,
## #   precip <dbl>, pressure <dbl>, visib <dbl>, time_hour <dttm>
…
## # A tibble: 3 x 6
##    year month   day  hour origin     n
##   <dbl> <dbl> <int> <int> <chr>  <int>
## 1  2013    11     3     1 EWR        2
## 2  2013    11     3     1 JFK        2
## 3  2013    11     3     1 LGA        2

  primary key    .     tail num      .

flights %>%
  count(year, month, day, flight) %>%
  filter(n > 1)

## # A tibble: 29,768 x 5
##     year month   day flight     n
##    <int> <int> <int>  <int> <int>
##  1  2013     1     1      1     2
##  2  2013     1     1      3     2
##  3  2013     1     1      4     2
##  4  2013     1     1     11     3
##  5  2013     1     1     15     2
##  6  2013     1     1     21     2
##  7  2013     1     1     27     4
##  8  2013     1     1     31     2
##  9  2013     1     1     32     2
## 10  2013     1     1     35     2
## # ... with 29,758 more rows

flights %>%
  count(year, month, day, tailnum) %>%
  filter(n > 1)

## # A tibble: 64,928 x 5
##     year month   day tailnum     n
##    <int> <int> <int> <chr>   <int>
##  1  2013     1     1 N0EGMQ      2
##  2  2013     1     1 N11189      2
##  3  2013     1     1 N11536      2
##  4  2013     1     1 N11544      3
##  5  2013     1     1 N11551      2
##  6  2013     1     1 N12540      2
##  7  2013     1     1 N12567      2
##  8  2013     1     1 N13123      2
##  9  2013     1     1 N13538      3
## 10  2013     1     1 N13566      3
## # ... with 64,918 more rows
…
 primary key  distinct()   . 

diamonds %>% 
  distinct() %>% 
  nrow() == nrow(diamonds)

## [1] FALSE

diamonds %>% 
  arrange(cut, color, clarity, carat) %>% 
  mutate(id = row_number())

## # A tibble: 53,940 x 11
##    carat cut   color clarity depth table price     x     y     z    id
##    <dbl> <ord> <ord> <ord>   <dbl> <dbl> <int> <dbl> <dbl> <dbl> <int>
##  1 0.91  Fair  D     I1       66.2    57  2491  6     5.94  3.95     1
##  2 1.5   Fair  D     I1       64.7    62  5460  7.19  7.04  4.6      2
##  3 1.7   Fair  D     I1       64.7    56  5617  7.46  7.37  4.8      3
##  4 3.4   Fair  D     I1       66.8    52 15964  9.42  9.34  6.27     4
##  5 0.3   Fair  D     SI2      64.6    54   536  4.29  4.25  2.76     5
##  6 0.51  Fair  D     SI2      66.5    58  1109  4.95  4.89  3.27     6
##  7 0.580 Fair  D     SI2      65.1    58  1156  5.25  5.22  3.41     7
##  8 0.62  Fair  D     SI2      64.6    57  1410  5.39  5.33  3.46     8
##  9 0.7   Fair  D     SI2      71.6    55  1696  5.47  5.28  3.85     9
## 10 0.7   Fair  D     SI2      67.8    58  1770  5.51  5.44  3.71    10
## # ... with 53,930 more rows
…
2.9 Defining the Key Columns

,        join,     .    by   .

 by = NULL     (natural join).  , flights and weather     : year, month, day, hour, and origin

flights2 %>%
  left_join(weather)

## Joining, by = c("year", "month", "day", "hour", "origin")

## # A tibble: 336,776 x 18
##     year month   day  hour origin dest  tailnum carrier  temp  dewp humid
##    <dbl> <dbl> <int> <dbl> <chr>  <chr> <chr>   <chr>   <dbl> <dbl> <dbl>
##  1  2013     1     1     5 EWR    IAH   N14228  UA       39.0  28.0  64.4
##  2  2013     1     1     5 LGA    IAH   N24211  UA       39.9  25.0  54.8
##  3  2013     1     1     5 JFK    MIA   N619AA  AA       39.0  27.0  61.6
##  4  2013     1     1     5 JFK    BQN   N804JB  B6       39.0  27.0  61.6
##  5  2013     1     1     6 LGA    ATL   N668DN  DL       39.9  25.0  54.8
##  6  2013     1     1     5 EWR    ORD   N39463  UA       39.0  28.0  64.4
##  7  2013     1     1     6 EWR    FLL   N516JB  B6       37.9  28.0  67.2
##  8  2013     1     1     6 LGA    IAD   N829AS  EV       39.9  25.0  54.8
##  9  2013     1     1     6 JFK    MCO   N593JB  B6       37.9  27.0  64.3
## 10  2013     1     1     6 LGA    ORD   N3ALAA  AA       39.9  25.0  54.8
## # ... with 336,766 more rows, and 7 more variables: wind_dir <dbl>,
## #   wind_speed <dbl>, wind_gust <dbl>, precip <dbl>, pressure <dbl>,
## #   visib <dbl>, time_hour <dttm>

(flights2 time_hour    )

 , by = "x". natural join,   .
 , flights planes year      tailnum  .

flights2 %>% 
  left_join(planes, by = "tailnum")

## # A tibble: 336,776 x 16
##    year.x month   day  hour origin dest  tailnum carrier year.y type 
##     <int> <int> <int> <dbl> <chr>  <chr> <chr>   <chr>    <int> <chr>
##  1   2013     1     1     5 EWR    IAH   N14228  UA        1999 Fixe~
##  2   2013     1     1     5 LGA    IAH   N24211  UA        1998 Fixe~
##  3   2013     1     1     5 JFK    MIA   N619AA  AA        1990 Fixe~
##  4   2013     1     1     5 JFK    BQN   N804JB  B6        2012 Fixe~
##  5   2013     1     1     6 LGA    ATL   N668DN  DL        1991 Fixe~
##  6   2013     1     1     5 EWR    ORD   N39463  UA        2012 Fixe~
##  7   2013     1     1     6 EWR    FLL   N516JB  B6        2000 Fixe~
##  8   2013     1     1     6 LGA    IAD   N829AS  EV        1998 Fixe~
##  9   2013     1     1     6 JFK    MCO   N593JB  B6        2004 Fixe~
## 10   2013     1     1     6 LGA    ORD   N3ALAA  AA          NA <NA> 
## # ... with 336,766 more rows, and 6 more variables: manufacturer <chr>,
## #   model <chr>, engines <int>, seats <int>, speed <int>, engine <chr>

   year  .

by = c("a" = "b")  x a  y b  .  ,    flights airport  (lat, long) .   origin destination airport  join    .

flights2 %>% 
  left_join(airports, c("dest" = "faa"))

## # A tibble: 336,776 x 15
##     year month   day  hour origin dest  tailnum carrier name    lat   lon
##    <int> <int> <int> <dbl> <chr>  <chr> <chr>   <chr>   <chr> <dbl> <dbl>
##  1  2013     1     1     5 EWR    IAH   N14228  UA      Geor~  30.0 -95.3
##  2  2013     1     1     5 LGA    IAH   N24211  UA      Geor~  30.0 -95.3
##  3  2013     1     1     5 JFK    MIA   N619AA  AA      Miam~  25.8 -80.3
##  4  2013     1     1     5 JFK    BQN   N804JB  B6      <NA>   NA    NA  
##  5  2013     1     1     6 LGA    ATL   N668DN  DL      Hart~  33.6 -84.4
##  6  2013     1     1     5 EWR    ORD   N39463  UA      Chic~  42.0 -87.9
##  7  2013     1     1     6 EWR    FLL   N516JB  B6      Fort~  26.1 -80.2
##  8  2013     1     1     6 LGA    IAD   N829AS  EV      Wash~  38.9 -77.5
##  9  2013     1     1     6 JFK    MCO   N593JB  B6      Orla~  28.4 -81.3
## 10  2013     1     1     6 LGA    ORD   N3ALAA  AA      Chic~  42.0 -87.9
## # ... with 336,766 more rows, and 4 more variables: alt <int>, tz <dbl>,
## #   dst <chr>, tzone <chr>

flights2 %>% 
  left_join(airports, by = c("origin" = "faa"))

## # A tibble: 336,776 x 15
##     year month   day  hour origin dest  tailnum carrier name    lat   lon
##    <int> <int> <int> <dbl> <chr>  <chr> <chr>   <chr>   <chr> <dbl> <dbl>
##  1  2013     1     1     5 EWR    IAH   N14228  UA      Newa~  40.7 -74.2
##  2  2013     1     1     5 LGA    IAH   N24211  UA      La G~  40.8 -73.9
##  3  2013     1     1     5 JFK    MIA   N619AA  AA      John~  40.6 -73.8
##  4  2013     1     1     5 JFK    BQN   N804JB  B6      John~  40.6 -73.8
##  5  2013     1     1     6 LGA    ATL   N668DN  DL      La G~  40.8 -73.9
##  6  2013     1     1     5 EWR    ORD   N39463  UA      Newa~  40.7 -74.2
##  7  2013     1     1     6 EWR    FLL   N516JB  B6      Newa~  40.7 -74.2
##  8  2013     1     1     6 LGA    IAD   N829AS  EV      La G~  40.8 -73.9
##  9  2013     1     1     6 JFK    MCO   N593JB  B6      John~  40.6 -73.8
## 10  2013     1     1     6 LGA    ORD   N3ALAA  AA      La G~  40.8 -73.9
## # ... with 336,766 more rows, and 4 more variables: alt <int>, tz <dbl>,
## #   dst <chr>, tzone <chr>
…
(Dont worry if you dont understand what semi_join() does
youll learn about it next.)
You might want to use the size or color of the points to display
the average delay for each airport.

Add the location of the origin and destination (i.e., the lat and
lon) to flights.

flights %>% 
  left_join(airports, by = c("dest" = "faa")) %>%
  left_join(airports, by = c("origin" = "faa"), suffix = c(".dest", 
".origin")) %>%
  select(dest, origin, contains("lat"), contains("lon"))

## # A tibble: 336,776 x 6
##    dest  origin lat.dest lat.origin lon.dest lon.origin
##    <chr> <chr>     <dbl>      <dbl>    <dbl>      <dbl>
##  1 IAH   EWR        30.0       40.7    -95.3      -74.2
##  2 IAH   LGA        30.0       40.8    -95.3      -73.9
##  3 MIA   JFK        25.8       40.6    -80.3      -73.8
##  4 BQN   JFK        NA         40.6     NA        -73.8
##  5 ATL   LGA        33.6       40.8    -84.4      -73.9
##  6 ORD   EWR        42.0       40.7    -87.9      -74.2
##  7 FLL   EWR        26.1       40.7    -80.2      -74.2
##  8 IAD   LGA        38.9       40.8    -77.5      -73.9
##  9 MCO   JFK        28.4       40.6    -81.3      -73.8
## 10 ORD   LGA        42.0       40.8    -87.9      -73.9
## # ... with 336,766 more rows
…
