…
  - 복잡한 데이터 셋을 더 잘 이해하기 위해 많은 간단한 모형을 사용한다.
  - 데이터프레임에서 임의의 데이터 구조를 저장하는 리스트-열을 사용
  - broom패키지를 사용해서 모델을 tidy 데이터로 바꾼다.

가장 강한 신호중 몇으로 나누는 간단한 모형 다수를 사용해서 남아있는 희미한 신호를 볼 수 있다. 모델 요약이 우리에게 이상치를
찾고 비정상적 경향을 찾는데 도움을 준다.

## Gapminder

``` r
library(gapminder)
gapminder
```

    ## # A tibble: 1,704 x 6
    ##    country     continent  year lifeExp      pop gdpPercap
    ##    <fct>       <fct>     <int>   <dbl>    <int>     <dbl>
    ##  1 Afghanistan Asia       1952    28.8  8425333      779.
    ##  2 Afghanistan Asia       1957    30.3  9240934      821.
    ##  3 Afghanistan Asia       1962    32.0 10267083      853.
    ##  4 Afghanistan Asia       1967    34.0 11537966      836.
    ##  5 Afghanistan Asia       1972    36.1 13079460      740.
    ##  6 Afghanistan Asia       1977    38.4 14880372      786.
    ##  7 Afghanistan Asia       1982    39.9 12881816      978.
    ##  8 Afghanistan Asia       1987    40.8 13867957      852.
    ##  9 Afghanistan Asia       1992    41.7 16317921      649.
    ## 10 Afghanistan Asia       1997    41.8 22227415      635.
    ## # ... with 1,694 more rows
…
하지만, 모델의 리스트를 free-floating object로서 두는 대신에 ***by\_country*** 데이터 프레임에
열로서 저장하는 것이 더 좋다. 열에 관련된 객체를 저장하는 것은 데이터 프레임 값의 중요한 부분이고
list-columns가 좋은 아이디어라고 생각하는 이유다. 이러한 나라에서 작업하는 코스에서 국가마다 한가지 성분을 가지는 많은
리스트를 가질 수 있다.

다시 말해서, 전역 환경에 새로운 객체를 생성하는 대신에, by\_country에 새로운 변수를 추가한다.

``` r
by_country <- by_country %>% 
  mutate(model = map(data, country_model))
by_country
```

    ## # A tibble: 142 x 4
    ##    country     continent data              model 
    ##    <fct>       <fct>     <list>            <list>
    ##  1 Afghanistan Asia      <tibble [12 x 4]> <lm>  
    ##  2 Albania     Europe    <tibble [12 x 4]> <lm>  
    ##  3 Algeria     Africa    <tibble [12 x 4]> <lm>  
    ##  4 Angola      Africa    <tibble [12 x 4]> <lm>  
    ##  5 Argentina   Americas  <tibble [12 x 4]> <lm>  
    ##  6 Australia   Oceania   <tibble [12 x 4]> <lm>  
    ##  7 Austria     Europe    <tibble [12 x 4]> <lm>  
    ##  8 Bahrain     Asia      <tibble [12 x 4]> <lm>  
    ##  9 Bangladesh  Asia      <tibble [12 x 4]> <lm>  
    ## 10 Belgium     Europe    <tibble [12 x 4]> <lm>  
    ## # ... with 132 more rows

``` r
by_country %>% 
  filter(continent == "Europe")
```

    ## # A tibble: 30 x 4
    ##    country                continent data              model 
    ##    <fct>                  <fct>     <list>            <list>
    ##  1 Albania                Europe    <tibble [12 x 4]> <lm>  
    ##  2 Austria                Europe    <tibble [12 x 4]> <lm>  
    ##  3 Belgium                Europe    <tibble [12 x 4]> <lm>  
    ##  4 Bosnia and Herzegovina Europe    <tibble [12 x 4]> <lm>  
    ##  5 Bulgaria               Europe    <tibble [12 x 4]> <lm>  
    ##  6 Croatia                Europe    <tibble [12 x 4]> <lm>  
    ##  7 Czech Republic         Europe    <tibble [12 x 4]> <lm>  
    ##  8 Denmark                Europe    <tibble [12 x 4]> <lm>  
    ##  9 Finland                Europe    <tibble [12 x 4]> <lm>  
    ## 10 France                 Europe    <tibble [12 x 4]> <lm>  
    ## # ... with 20 more rows

``` r
by_country %>% 
  arrange(continent, country)
```

    ## # A tibble: 142 x 4
    ##    country                  continent data              model 
    ##    <fct>                    <fct>     <list>            <list>
    ##  1 Algeria                  Africa    <tibble [12 x 4]> <lm>  
    ##  2 Angola                   Africa    <tibble [12 x 4]> <lm>  
    ##  3 Benin                    Africa    <tibble [12 x 4]> <lm>  
    ##  4 Botswana                 Africa    <tibble [12 x 4]> <lm>  
    ##  5 Burkina Faso             Africa    <tibble [12 x 4]> <lm>  
    ##  6 Burundi                  Africa    <tibble [12 x 4]> <lm>  
    ##  7 Cameroon                 Africa    <tibble [12 x 4]> <lm>  
    ##  8 Central African Republic Africa    <tibble [12 x 4]> <lm>  
    ##  9 Chad                     Africa    <tibble [12 x 4]> <lm>  
    ## 10 Comoros                  Africa    <tibble [12 x 4]> <lm>  
    ## # ... with 132 more rows
…
### Unnesting

단 하나의 데이터 셋으로 단 하나의 모델의 잔차를 계산했다. 142개의 데이터프레임을 가지고 142모델을 가지게 되었다. 잔차를
계산하기 위해, 각 모델 쌍에 `add_residuals()`를 호출할 필요가 있다.

``` r
by_country <- by_country %>% 
  mutate(
    resids = map2(data, model, add_residuals)
  )
by_country
```

    ## # A tibble: 142 x 5
    ##    country     continent data              model  resids           
    ##    <fct>       <fct>     <list>            <list> <list>           
    ##  1 Afghanistan Asia      <tibble [12 x 4]> <lm>   <tibble [12 x 5]>
    ##  2 Albania     Europe    <tibble [12 x 4]> <lm>   <tibble [12 x 5]>
    ##  3 Algeria     Africa    <tibble [12 x 4]> <lm>   <tibble [12 x 5]>
    ##  4 Angola      Africa    <tibble [12 x 4]> <lm>   <tibble [12 x 5]>
    ##  5 Argentina   Americas  <tibble [12 x 4]> <lm>   <tibble [12 x 5]>
    ##  6 Australia   Oceania   <tibble [12 x 4]> <lm>   <tibble [12 x 5]>
    ##  7 Austria     Europe    <tibble [12 x 4]> <lm>   <tibble [12 x 5]>
    ##  8 Bahrain     Asia      <tibble [12 x 4]> <lm>   <tibble [12 x 5]>
    ##  9 Bangladesh  Asia      <tibble [12 x 4]> <lm>   <tibble [12 x 5]>
    ## 10 Belgium     Europe    <tibble [12 x 4]> <lm>   <tibble [12 x 5]>
    ## # ... with 132 more rows

하지만 데이터프레임의 리스트를 어떻게 그릴 것인가? 이 문제에 답하기 위해 고분분투하는 대신에, 데이터프레임의 리스트를 정규
데이터 프레임으도 되돌리자.

``` r
resids <- unnest(by_country, resids) # nest의 반대
resids
```

    ## # A tibble: 1,704 x 7
    ##    country     continent  year lifeExp      pop gdpPercap   resid
    ##    <fct>       <fct>     <int>   <dbl>    <int>     <dbl>   <dbl>
    ##  1 Afghanistan Asia       1952    28.8  8425333      779. -1.11  
    ##  2 Afghanistan Asia       1957    30.3  9240934      821. -0.952 
    ##  3 Afghanistan Asia       1962    32.0 10267083      853. -0.664 
    ##  4 Afghanistan Asia       1967    34.0 11537966      836. -0.0172
    ##  5 Afghanistan Asia       1972    36.1 13079460      740.  0.674 
    ##  6 Afghanistan Asia       1977    38.4 14880372      786.  1.65  
    ##  7 Afghanistan Asia       1982    39.9 12881816      978.  1.69  
    ##  8 Afghanistan Asia       1987    40.8 13867957      852.  1.28  
    ##  9 Afghanistan Asia       1992    41.7 16317921      649.  0.754 
    ## 10 Afghanistan Asia       1997    41.8 22227415      635. -0.534 
    ## # ... with 1,694 more rows
…
    ## # A tibble: 1 x 11
    ##   r.squared adj.r.squared sigma statistic p.value    df logLik   AIC   BIC
    ##       <dbl>         <dbl> <dbl>     <dbl>   <dbl> <int>  <dbl> <dbl> <dbl>
    ## 1     0.954         0.949 0.804      205. 5.41e-8     2  -13.3  32.6  34.1
    ## # ... with 2 more variables: deviance <dbl>, df.residual <int>

각 나라의 행을 데이터프레임으로 만들 수 있다.

``` r
by_country %>%
  mutate(glance = map(model, glance)) %>%
  unnest(glance)
```

    ## # A tibble: 142 x 16
    ##    country continent data  model resids r.squared adj.r.squared sigma
    ##    <fct>   <fct>     <lis> <lis> <list>     <dbl>         <dbl> <dbl>
    ##  1 Afghan~ Asia      <tib~ <lm>  <tibb~     0.948         0.942 1.22 
    ##  2 Albania Europe    <tib~ <lm>  <tibb~     0.911         0.902 1.98 
    ##  3 Algeria Africa    <tib~ <lm>  <tibb~     0.985         0.984 1.32 
    ##  4 Angola  Africa    <tib~ <lm>  <tibb~     0.888         0.877 1.41 
    ##  5 Argent~ Americas  <tib~ <lm>  <tibb~     0.996         0.995 0.292
    ##  6 Austra~ Oceania   <tib~ <lm>  <tibb~     0.980         0.978 0.621
    ##  7 Austria Europe    <tib~ <lm>  <tibb~     0.992         0.991 0.407
    ##  8 Bahrain Asia      <tib~ <lm>  <tibb~     0.967         0.963 1.64 
    ##  9 Bangla~ Asia      <tib~ <lm>  <tibb~     0.989         0.988 0.977
    ## 10 Belgium Europe    <tib~ <lm>  <tibb~     0.995         0.994 0.293
    ## # ... with 132 more rows, and 8 more variables: statistic <dbl>,
    ## #   p.value <dbl>, df <int>, logLik <dbl>, AIC <dbl>, BIC <dbl>,
    ## #   deviance <dbl>, df.residual <int>

이것은 여전히 list-columns를 가지고 있기 때문에 우리가 원하는 출력값이 아니다. (기억)이것이 `unnest()`가 단
하나의 행인 데이터 프레임에 작업할 때 디폴트 행동이다. 이것을 억제하기 위해 `.drop = TRUE`를 설정해주자.

``` r
glances <- by_country %>% 
  mutate(glance = map(model, glance)) %>% 
  unnest(glance, .drop = TRUE)
glances
```

    ## # A tibble: 142 x 13
    ##    country continent r.squared adj.r.squared sigma statistic  p.value    df
    ##    <fct>   <fct>         <dbl>         <dbl> <dbl>     <dbl>    <dbl> <int>
    ##  1 Afghan~ Asia          0.948         0.942 1.22      181.  9.84e- 8     2
    ##  2 Albania Europe        0.911         0.902 1.98      102.  1.46e- 6     2
    ##  3 Algeria Africa        0.985         0.984 1.32      662.  1.81e-10     2
    ##  4 Angola  Africa        0.888         0.877 1.41       79.1 4.59e- 6     2
    ##  5 Argent~ Americas      0.996         0.995 0.292    2246.  4.22e-13     2
    ##  6 Austra~ Oceania       0.980         0.978 0.621     481.  8.67e-10     2
    ##  7 Austria Europe        0.992         0.991 0.407    1261.  7.44e-12     2
    ##  8 Bahrain Asia          0.967         0.963 1.64      291.  1.02e- 8     2
    ##  9 Bangla~ Asia          0.989         0.988 0.977     930.  3.37e-11     2
    ## 10 Belgium Europe        0.995         0.994 0.293    1822.  1.20e-12     2
    ## # ... with 132 more rows, and 5 more variables: logLik <dbl>, AIC <dbl>,
    ## #   BIC <dbl>, deviance <dbl>, df.residual <int>

잘 적합되지 않은 모델들.

``` r
glances %>% 
  arrange(r.squared)
```

    ## # A tibble: 142 x 13
    ##    country continent r.squared adj.r.squared sigma statistic p.value    df
    ##    <fct>   <fct>         <dbl>         <dbl> <dbl>     <dbl>   <dbl> <int>
    ##  1 Rwanda  Africa       0.0172      -0.0811   6.56     0.175  0.685      2
    ##  2 Botswa~ Africa       0.0340      -0.0626   6.11     0.352  0.566      2
    ##  3 Zimbab~ Africa       0.0562      -0.0381   7.21     0.596  0.458      2
    ##  4 Zambia  Africa       0.0598      -0.0342   4.53     0.636  0.444      2
    ##  5 Swazil~ Africa       0.0682      -0.0250   6.64     0.732  0.412      2
    ##  6 Lesotho Africa       0.0849      -0.00666  5.93     0.927  0.358      2
    ##  7 Cote d~ Africa       0.283        0.212    3.93     3.95   0.0748     2
    ##  8 South ~ Africa       0.312        0.244    4.74     4.54   0.0588     2
    ##  9 Uganda  Africa       0.342        0.276    3.19     5.20   0.0457     2
    ## 10 Congo,~ Africa       0.348        0.283    2.43     5.34   0.0434     2
    ## # ... with 132 more rows, and 5 more variables: logLik <dbl>, AIC <dbl>,
    ## #   BIC <dbl>, deviance <dbl>, df.residual <int>
…
nest()는 nested data frame을 생성하고 그리고 이것은 데이터 프레임의 리스트 열을 가진 데이터 프레임이다.
nested데이터 프레임의 각 행은 메타 관측치이다. 다른 열은 변수에 관측치를 정의하고 데이터프레임의 리스트 열은 개별 관측치에
메타-관측치를 구성한다.

nest()를 사용한느 두가지 방법이 있다. 현재까지는 그룹화된 데이터프레임에서 사용을 보았다. 그룹화된 데이터 프레임에서
적용될때 nest()는 그룹화 열을 유지하고 리스트-열로 모든 것을 묶는다.

``` r
gapminder %>% 
  group_by(country, continent) %>% 
  nest()
```

    ## # A tibble: 142 x 3
    ##    country     continent data             
    ##    <fct>       <fct>     <list>           
    ##  1 Afghanistan Asia      <tibble [12 x 4]>
    ##  2 Albania     Europe    <tibble [12 x 4]>
    ##  3 Algeria     Africa    <tibble [12 x 4]>
    ##  4 Angola      Africa    <tibble [12 x 4]>
    ##  5 Argentina   Americas  <tibble [12 x 4]>
    ##  6 Australia   Oceania   <tibble [12 x 4]>
    ##  7 Austria     Europe    <tibble [12 x 4]>
    ##  8 Bahrain     Asia      <tibble [12 x 4]>
    ##  9 Bangladesh  Asia      <tibble [12 x 4]>
    ## 10 Belgium     Europe    <tibble [12 x 4]>
    ## # ... with 132 more rows

그룹화되지 않은 데이터 프레임에 nest하기를 원하는 열을 구체화 함으로써 이것을 사용할 수 있다.

``` r
gapminder %>% 
  nest(year:gdpPercap)
```

    ## # A tibble: 142 x 3
    ##    country     continent data             
    ##    <fct>       <fct>     <list>           
    ##  1 Afghanistan Asia      <tibble [12 x 4]>
    ##  2 Albania     Europe    <tibble [12 x 4]>
    ##  3 Algeria     Africa    <tibble [12 x 4]>
    ##  4 Angola      Africa    <tibble [12 x 4]>
    ##  5 Argentina   Americas  <tibble [12 x 4]>
    ##  6 Australia   Oceania   <tibble [12 x 4]>
    ##  7 Austria     Europe    <tibble [12 x 4]>
    ##  8 Bahrain     Asia      <tibble [12 x 4]>
    ##  9 Bangladesh  Asia      <tibble [12 x 4]>
    ## 10 Belgium     Europe    <tibble [12 x 4]>
    ## # ... with 132 more rows
…
    ## All nested columns must have the same number of elements.

리스트 사이의 같은 길이를 가지는 행을 서브세팅 함으로써 고친다.

``` r
new_df %>% 
  mutate(first_len = map_dbl(data, nrow),
         second_len = map_dbl(resids, nrow)) %>% 
  filter(first_len == second_len) %>% 
  unnest()
```

    ## # A tibble: 1,704 x 12
    ##    country first_len second_len  year lifeExp    pop gdpPercap year1
    ##    <fct>       <dbl>      <dbl> <int>   <dbl>  <int>     <dbl> <int>
    ##  1 Afghan~        12         12  1952    28.8 8.43e6      779.  1952
    ##  2 Afghan~        12         12  1957    30.3 9.24e6      821.  1957
    ##  3 Afghan~        12         12  1962    32.0 1.03e7      853.  1962
    ##  4 Afghan~        12         12  1967    34.0 1.15e7      836.  1967
    ##  5 Afghan~        12         12  1972    36.1 1.31e7      740.  1972
    ##  6 Afghan~        12         12  1977    38.4 1.49e7      786.  1977
    ##  7 Afghan~        12         12  1982    39.9 1.29e7      978.  1982
    ##  8 Afghan~        12         12  1987    40.8 1.39e7      852.  1987
    ##  9 Afghan~        12         12  1992    41.7 1.63e7      649.  1992
    ## 10 Afghan~        12         12  1997    41.8 2.22e7      635.  1997
    ## # ... with 1,694 more rows, and 4 more variables: lifeExp1 <dbl>,
    ## #   pop1 <int>, gdpPercap1 <dbl>, resid <dbl>
만약 다수의 열을 unnest하게되면 이름이 같은 열은 뒤에 1이 붙는다.

``` r
new_df <-
  by_country %>% 
  mutate(glance = map(model, glance)) %>% 
  select(country, data, resids) %>% 
  add_row(country = "random",
          data = list(tibble(a = letters[1:12])),
          resids = list(tibble(b = letters[1:12])))
new_df %>% 
  unnest()
```

    ## # A tibble: 1,716 x 12
    ##    country  year lifeExp    pop gdpPercap a     year1 lifeExp1   pop1
    ##    <fct>   <int>   <dbl>  <int>     <dbl> <chr> <int>    <dbl>  <int>
    ##  1 Afghan~  1952    28.8 8.43e6      779. <NA>   1952     28.8 8.43e6
    ##  2 Afghan~  1957    30.3 9.24e6      821. <NA>   1957     30.3 9.24e6
    ##  3 Afghan~  1962    32.0 1.03e7      853. <NA>   1962     32.0 1.03e7
    ##  4 Afghan~  1967    34.0 1.15e7      836. <NA>   1967     34.0 1.15e7
    ##  5 Afghan~  1972    36.1 1.31e7      740. <NA>   1972     36.1 1.31e7
    ##  6 Afghan~  1977    38.4 1.49e7      786. <NA>   1977     38.4 1.49e7
    ##  7 Afghan~  1982    39.9 1.29e7      978. <NA>   1982     39.9 1.29e7
    ##  8 Afghan~  1987    40.8 1.39e7      852. <NA>   1987     40.8 1.39e7
    ##  9 Afghan~  1992    41.7 1.63e7      649. <NA>   1992     41.7 1.63e7
    ## 10 Afghan~  1997    41.8 2.22e7      635. <NA>   1997     41.8 2.22e7
    ## # ... with 1,706 more rows, and 3 more variables: gdpPercap1 <dbl>,
    ## #   resid <dbl>, b <chr>
…
    ## # A tibble: 2 x 5
    ##   term        estimate std.error statistic p.value
    ##   <chr>          <dbl>     <dbl>     <dbl>   <dbl>
    ## 1 (Intercept)    12.0       4.51      2.67 0.00759
    ## 2 wt             -4.02      1.44     -2.80 0.00509

``` r
augment(glmfit)
```

    ## # A tibble: 32 x 10
    ##    .rownames    am    wt .fitted .se.fit .resid   .hat .sigma .cooksd
    ##    <chr>     <dbl> <dbl>   <dbl>   <dbl>  <dbl>  <dbl>  <dbl>   <dbl>
    ##  1 Mazda RX4     1  2.62   1.50    0.918  0.635 0.126   0.803 0.0184 
    ##  2 Mazda RX~     1  2.88   0.471   0.676  0.985 0.108   0.790 0.0424 
    ##  3 Datsun 7~     1  2.32   2.70    1.28   0.360 0.0963  0.810 0.00394
    ##  4 Hornet 4~     0  3.22  -0.897   0.601 -0.827 0.0744  0.797 0.0177 
    ##  5 Hornet S~     0  3.44  -1.80    0.749 -0.553 0.0681  0.806 0.00647
    ##  6 Valiant       0  3.46  -1.88    0.767 -0.532 0.0674  0.807 0.00590
    ##  7 Duster 3~     0  3.57  -2.33    0.878 -0.432 0.0625  0.809 0.00348
    ##  8 Merc 240D     0  3.19  -0.796   0.593 -0.863 0.0755  0.796 0.0199 
    ##  9 Merc 230      0  3.15  -0.635   0.586 -0.922 0.0776  0.793 0.0242 
    ## 10 Merc 280      0  3.44  -1.80    0.749 -0.553 0.0681  0.806 0.00647
    ## # ... with 22 more rows, and 1 more variable: .std.resid <dbl>
…
    ## # A tibble: 2 x 5
    ##   term  estimate std.error statistic  p.value
    ##   <chr>    <dbl>     <dbl>     <dbl>    <dbl>
    ## 1 k        45.8       4.25     10.8  7.64e-12
    ## 2 b         4.39      1.54      2.85 7.74e- 3

``` r
augment(nlsfit)
```

    ## # A tibble: 32 x 4
    ##      mpg    wt .fitted .resid
    ##    <dbl> <dbl>   <dbl>  <dbl>
    ##  1  21    2.62    21.9 -0.878
    ##  2  21    2.88    20.3  0.673
    ##  3  22.8  2.32    24.1 -1.34 
    ##  4  21.4  3.22    18.6  2.76 
    ##  5  18.7  3.44    17.7  0.991
    ##  6  18.1  3.46    17.6  0.468
    ##  7  14.3  3.57    17.2 -2.92 
    ##  8  24.4  3.19    18.8  5.65 
    ##  9  22.8  3.15    18.9  3.86 
    ## 10  19.2  3.44    17.7  1.49 
    ## # ... with 22 more rows
…
