ggplot2 Elegant Graphics for Data Analysis
…
stat : The name of statistical transformation to use.      .

position : The method used to adjust overlapping objects, like jittering, stacking or dodging

2.1 Data

data tidy   .

mod <- loess(hwy ~ displ, data = mpg)
grid <- data_frame(displ = seq(min(mpg$displ), max(mpg$displ), length = 50))
grid$hwy <- predict(mod, newdata = grid)
grid

## # A tibble: 50 x 2
##    displ   hwy
##    <dbl> <dbl>
##  1  1.6   33.1
##  2  1.71  32.2
##  3  1.82  31.3
##  4  1.93  30.4
##  5  2.04  29.6
##  6  2.15  28.8
##  7  2.26  28.1
##  8  2.37  27.4
##  9  2.48  26.7
## 10  2.59  26.1
## # ... with 40 more rows
…
