ggplot2 Elegant Graphics for Data Analysis
…
  indexted data,   Cartesian data .    A, B, C, D    tidy   .
       . NA presence of absence  absence of presence  .

2.1 Gather

data :    

key & value : key      value    .

 : A,B,C,D A:D   . gather  -E, -F  .

gather(ec2, key = year, value = unemp, `2006`:`2015`)

## # A tibble: 120 x 3
##    month year  unemp
##    <int> <chr> <dbl>
##  1     1 2006    8.6
##  2     2 2006    9.1
##  3     3 2006    8.7
##  4     4 2006    8.4
##  5     5 2006    8.5
##  6     6 2006    7.3
##  7     7 2006    8  
##  8     8 2006    8.4
##  9     9 2006    8  
## 10    10 2006    7.9
## # ... with 110 more rows

: backtick, advanced R     R   .

gather(ec2, key = year, value = unemp, -month)

## # A tibble: 120 x 3
##    month year  unemp
##    <int> <chr> <dbl>
##  1     1 2006    8.6
##  2     2 2006    9.1
##  3     3 2006    8.7
##  4     4 2006    8.4
##  5     5 2006    8.5
##  6     6 2006    7.3
##  7     7 2006    8  
##  8     8 2006    8.4
##  9     9 2006    8  
## 10    10 2006    7.9
## # ... with 110 more rows
…
## # A tibble: 3 x 3
##     day  rain  temp
##   <int> <dbl> <dbl>
## 1     1     0    23
## 2     2     0    22
## 3     3     5    20

2.3 Exercises

How can you convert back and forth between the economics and economics long datasets built into ggplot2?

gather(economics, key = variable, value = value, -date)

## # A tibble: 2,870 x 3
##    date       variable value
##    <date>     <chr>    <dbl>
##  1 1967-07-01 pce       507.
##  2 1967-08-01 pce       510.
##  3 1967-09-01 pce       516.
##  4 1967-10-01 pce       513.
##  5 1967-11-01 pce       518.
##  6 1967-12-01 pce       526.
##  7 1968-01-01 pce       532.
##  8 1968-02-01 pce       534.
##  9 1968-03-01 pce       545.
## 10 1968-04-01 pce       545.
## # ... with 2,860 more rows

economics_long

## # A tibble: 2,870 x 4
## # Groups:   variable [5]
##    date       variable value  value01
##    <date>     <fct>    <dbl>    <dbl>
##  1 1967-07-01 pce       507. 0       
##  2 1967-08-01 pce       510. 0.000266
##  3 1967-09-01 pce       516. 0.000764
##  4 1967-10-01 pce       513. 0.000472
##  5 1967-11-01 pce       518. 0.000918
##  6 1967-12-01 pce       526. 0.00158 
##  7 1968-01-01 pce       532. 0.00207 
##  8 1968-02-01 pce       534. 0.00230 
##  9 1968-03-01 pce       545. 0.00322 
## 10 1968-04-01 pce       545. 0.00319 
## # ... with 2,860 more rows
…
ep stands for cases of extrapulmonary( ) TB

sn stands for cases of pulmonary() TB that could not be diagnosed by a pulmonary smear (smear negative)

sp stands for cases of pulmonary TB that could be diagnosed be a pulmonary smear (smear positive)

6  TB  f or m

  TB 
014 : 0 ~14, 1424 : 15~24 etc.

who2 <- who
(who2 <- gather(who2, "code", "value", 5:60))

## # A tibble: 405,440 x 6
##    country     iso2  iso3   year code        value
##    <chr>       <chr> <chr> <int> <chr>       <int>
##  1 Afghanistan AF    AFG    1980 new_sp_m014    NA
##  2 Afghanistan AF    AFG    1981 new_sp_m014    NA
##  3 Afghanistan AF    AFG    1982 new_sp_m014    NA
##  4 Afghanistan AF    AFG    1983 new_sp_m014    NA
##  5 Afghanistan AF    AFG    1984 new_sp_m014    NA
##  6 Afghanistan AF    AFG    1985 new_sp_m014    NA
##  7 Afghanistan AF    AFG    1986 new_sp_m014    NA
##  8 Afghanistan AF    AFG    1987 new_sp_m014    NA
##  9 Afghanistan AF    AFG    1988 new_sp_m014    NA
## 10 Afghanistan AF    AFG    1989 new_sp_m014    NA
## # ... with 405,430 more rows

(who2 <- separate(who2, code, c("new", "var", "sexage")))

## # A tibble: 405,440 x 8
##    country     iso2  iso3   year new   var   sexage value
##    <chr>       <chr> <chr> <int> <chr> <chr> <chr>  <int>
##  1 Afghanistan AF    AFG    1980 new   sp    m014      NA
##  2 Afghanistan AF    AFG    1981 new   sp    m014      NA
##  3 Afghanistan AF    AFG    1982 new   sp    m014      NA
##  4 Afghanistan AF    AFG    1983 new   sp    m014      NA
##  5 Afghanistan AF    AFG    1984 new   sp    m014      NA
##  6 Afghanistan AF    AFG    1985 new   sp    m014      NA
##  7 Afghanistan AF    AFG    1986 new   sp    m014      NA
##  8 Afghanistan AF    AFG    1987 new   sp    m014      NA
##  9 Afghanistan AF    AFG    1988 new   sp    m014      NA
## 10 Afghanistan AF    AFG    1989 new   sp    m014      NA
## # ... with 405,430 more rows

(who2 <- separate(who2, sexage, c("sex", "age"), sep = 1)) # sep = 1  

## # A tibble: 405,440 x 9
##    country     iso2  iso3   year new   var   sex   age   value
##    <chr>       <chr> <chr> <int> <chr> <chr> <chr> <chr> <int>
##  1 Afghanistan AF    AFG    1980 new   sp    m     014      NA
##  2 Afghanistan AF    AFG    1981 new   sp    m     014      NA
##  3 Afghanistan AF    AFG    1982 new   sp    m     014      NA
##  4 Afghanistan AF    AFG    1983 new   sp    m     014      NA
##  5 Afghanistan AF    AFG    1984 new   sp    m     014      NA
##  6 Afghanistan AF    AFG    1985 new   sp    m     014      NA
##  7 Afghanistan AF    AFG    1986 new   sp    m     014      NA
##  8 Afghanistan AF    AFG    1987 new   sp    m     014      NA
##  9 Afghanistan AF    AFG    1988 new   sp    m     014      NA
## 10 Afghanistan AF    AFG    1989 new   sp    m     014      NA
## # ... with 405,430 more rows

(who2 <- spread(who2, var, value))

## # A tibble: 101,360 x 11
##    country     iso2  iso3   year new   sex   age      ep   rel    sn    sp
##    <chr>       <chr> <chr> <int> <chr> <chr> <chr> <int> <int> <int> <int>
##  1 Afghanistan AF    AFG    1980 new   m     014      NA    NA    NA    NA
##  2 Afghanistan AF    AFG    1981 new   m     014      NA    NA    NA    NA
##  3 Afghanistan AF    AFG    1982 new   m     014      NA    NA    NA    NA
##  4 Afghanistan AF    AFG    1983 new   m     014      NA    NA    NA    NA
##  5 Afghanistan AF    AFG    1984 new   m     014      NA    NA    NA    NA
##  6 Afghanistan AF    AFG    1985 new   m     014      NA    NA    NA    NA
##  7 Afghanistan AF    AFG    1986 new   m     014      NA    NA    NA    NA
##  8 Afghanistan AF    AFG    1987 new   m     014      NA    NA    NA    NA
##  9 Afghanistan AF    AFG    1988 new   m     014      NA    NA    NA    NA
## 10 Afghanistan AF    AFG    1989 new   m     014      NA    NA    NA    NA
## # ... with 101,350 more rows
…
8.3 Exercises

Practice your filtering skills by:
 A carat smaller than the median carat.

diamonds %>% 
  filter(carat < median(carat))

 Cost more than $10,000 per carat

diamonds %>% 
  filter(price > 10000 & floor(carat))

## # A tibble: 5,222 x 10
##    carat cut       color clarity depth table price     x     y     z
##    <dbl> <ord>     <ord> <ord>   <dbl> <dbl> <int> <dbl> <dbl> <dbl>
##  1  1.7  Ideal     J     VS2      60.5    58 10002  7.73  7.74  4.68
##  2  1.03 Ideal     E     VVS2     60.6    59 10003  6.5   6.53  3.95
##  3  1.23 Very Good G     VVS2     60.6    55 10004  6.93  7.02  4.23
##  4  1.25 Ideal     F     VS2      61.6    55 10006  6.93  6.96  4.28
##  5  2.01 Very Good I     SI2      61.4    63 10009  8.19  7.96  4.96
##  6  1.21 Very Good F     VS1      62.3    58 10009  6.76  6.85  4.24
##  7  1.51 Premium   I     VS2      59.9    60 10010  7.42  7.36  4.43
##  8  1.01 Fair      D     SI2      64.6    58 10011  6.25  6.2   4.02
##  9  1.05 Ideal     F     VVS2     60.5    55 10011  6.67  6.58  4.01
## 10  1.6  Ideal     J     VS1      62      53 10011  7.57  7.56  4.69
## # ... with 5,212 more rows
…
9 Create New Variables

x y         flat  .

diamonds_ok2 <- mutate(diamonds_ok,
  sym = x - y,
  size = sqrt(x ^ 2 + y ^ 2)
)
diamonds_ok2

## # A tibble: 53,930 x 12
##    carat cut      color clarity depth table price     x     y     z      sym
##    <dbl> <ord>    <ord> <ord>   <dbl> <dbl> <int> <dbl> <dbl> <dbl>    <dbl>
##  1 0.23  Ideal    E     SI2      61.5    55   326  3.95  3.98  2.43 -0.0300 
##  2 0.21  Premium  E     SI1      59.8    61   326  3.89  3.84  2.31  0.05   
##  3 0.23  Good     E     VS1      56.9    65   327  4.05  4.07  2.31 -0.02   
##  4 0.290 Premium  I     VS2      62.4    58   334  4.2   4.23  2.63 -0.03   
##  5 0.31  Good     J     SI2      63.3    58   335  4.34  4.35  2.75 -0.01000
##  6 0.24  Very Go~ J     VVS2     62.8    57   336  3.94  3.96  2.48 -0.02   
##  7 0.24  Very Go~ I     VVS1     62.3    57   336  3.95  3.98  2.47 -0.0300 
##  8 0.26  Very Go~ H     SI1      61.9    55   337  4.07  4.11  2.53 -0.04   
##  9 0.22  Fair     E     VS2      65.1    61   337  3.87  3.78  2.49  0.09   
## 10 0.23  Very Go~ H     VS1      59.4    61   338  4     4.05  2.39 -0.0500 
## # ... with 53,920 more rows, and 1 more variable: size <dbl>
…
     . .

cut_depth <- diamonds %>% 
  group_by(cut, depth) %>% 
  summarise(n = n()) %>% 
  filter(depth > 55, depth < 70)
cut_depth

## # A tibble: 455 x 3
## # Groups:   cut [5]
##    cut   depth     n
##    <ord> <dbl> <int>
##  1 Fair   55.1     3
##  2 Fair   55.2     6
##  3 Fair   55.3     5
##  4 Fair   55.4     2
##  5 Fair   55.5     3
##  6 Fair   55.6     4
##  7 Fair   55.8     7
##  8 Fair   55.9     9
##  9 Fair   56       5
## 10 Fair   56.1     5
## # ... with 445 more rows
…
