…
``` r
txhousing %>% 
  filter(year >= 2009 & year <= 2011) %>% 
  select(city, year, month, sales)
```

    ## # A tibble: 1,656 x 4
    ## # Groups:   city [46]
    ##    city     year month sales
    ##    <chr>   <int> <int> <dbl>
    ##  1 Abilene  2009     1    70
    ##  2 Abilene  2009     2   106
    ##  3 Abilene  2009     3   131
    ##  4 Abilene  2009     4   157
    ##  5 Abilene  2009     5   143
    ##  6 Abilene  2009     6   187
    ##  7 Abilene  2009     7   158
    ##  8 Abilene  2009     8   149
    ##  9 Abilene  2009     9   128
    ## 10 Abilene  2009    10   151
    ## # ... with 1,646 more rows
…
``` r
models <- txhousing %>% 
  group_by(city) %>% 
  do(mod = lm(
    log2(sales) ~ factor(month),
    data = .,
    na.action = na.exclude
  ))
models
```

    ## Source: local data frame [46 x 2]
    ## Groups: <by row>
    ## 
    ## # A tibble: 46 x 2
    ##    city                  mod   
    ##  * <chr>                 <list>
    ##  1 Abilene               <lm>  
    ##  2 Amarillo              <lm>  
    ##  3 Arlington             <lm>  
    ##  4 Austin                <lm>  
    ##  5 Bay Area              <lm>  
    ##  6 Beaumont              <lm>  
    ##  7 Brazoria County       <lm>  
    ##  8 Brownsville           <lm>  
    ##  9 Bryan-College Station <lm>  
    ## 10 Collin County         <lm>  
    ## # ... with 36 more rows
…
``` r
 obs_sum %>%
 filter(abs(.std.resid) > 2) %>%
 group_by(city) %>%
 summarise(n = n(), avg = mean(abs(.std.resid))) %>%
 arrange(desc(n))
```

    ## # A tibble: 43 x 3
    ##    city                      n   avg
    ##    <chr>                 <int> <dbl>
    ##  1 Texarkana                12  2.43
    ##  2 Harlingen                11  2.73
    ##  3 Waco                     11  2.96
    ##  4 Victoria                 10  2.49
    ##  5 Brazoria County           9  2.31
    ##  6 Brownsville               9  2.48
    ##  7 Bryan-College Station     9  2.27
    ##  8 Killeen-Fort Hood         9  2.23
    ##  9 Laredo                    9  2.87
    ## 10 Nacogdoches               9  2.15
    ## # ... with 33 more rows
…
