…
## Point Metadata

Point metadata connects locations (defined by lat and lon) with other
variables

``` r
mi_cities <- maps::us.cities %>%
  tbl_df() %>%
  filter(country.etc =="MI") %>%
  select(-country.etc, lon = long) %>%
  arrange(desc(pop))
mi_cities
```

    ## # A tibble: 36 x 5
    ##    name                   pop   lat   lon capital
    ##    <chr>                <int> <dbl> <dbl>   <int>
    ##  1 Detroit MI          871789  42.4 -83.1       0
    ##  2 Grand Rapids MI     193006  43.0 -85.7       0
    ##  3 Warren MI           132537  42.5 -83.0       0
    ##  4 Sterling Heights MI 127027  42.6 -83.0       0
    ##  5 Lansing MI          117236  42.7 -84.6       2
    ##  6 Flint MI            115691  43.0 -83.7       0
    ##  7 Ann Arbor MI        113716  42.3 -83.7       0
    ##  8 Clinton MI          100517  42.6 -82.9       0
    ##  9 Livonia MI           97722  42.4 -83.4       0
    ## 10 Dearborn MI          94681  42.3 -83.2       0
    ## # ... with 26 more rows
…
## Area Metadata

Sometimes metadata is associated not with a point, but with an area

``` r
mi_census <- midwest %>%
  tbl_df() %>%
  filter(state =="MI") %>%
  mutate(county = tolower(county)) %>%
  select(county, area, poptotal, percwhite, percblack)
mi_census
```

    ## # A tibble: 83 x 5
    ##    county   area poptotal percwhite percblack
    ##    <chr>   <dbl>    <int>     <dbl>     <dbl>
    ##  1 alcona  0.041    10145      98.8    0.266 
    ##  2 alger   0.051     8972      93.9    2.37  
    ##  3 allegan 0.049    90509      95.9    1.60  
    ##  4 alpena  0.034    30605      99.2    0.114 
    ##  5 antrim  0.031    18185      98.4    0.126 
    ##  6 arenac  0.021    14931      98.4    0.0670
    ##  7 baraga  0.054     7954      87.6    0.616 
    ##  8 barry   0.034    50057      98.7    0.208 
    ##  9 bay     0.026   111723      96.4    1.11  
    ## 10 benzie  0.02     12200      97.2    0.246 
    ## # ... with 73 more rows

공간 요소가 없기 때문에 이 데이터로 바로 매핑할 순 없다. 대신에, vector bundaries data에
합친다.

``` r
census_counties <- left_join(mi_census, mi_counties, by = c("county" ="id"))
census_counties
```

    ## # A tibble: 1,472 x 8
    ##    county  area poptotal percwhite percblack   lon   lat group
    ##    <chr>  <dbl>    <int>     <dbl>     <dbl> <dbl> <dbl> <dbl>
    ##  1 alcona 0.041    10145      98.8     0.266 -83.9  44.9     1
    ##  2 alcona 0.041    10145      98.8     0.266 -83.4  44.9     1
    ##  3 alcona 0.041    10145      98.8     0.266 -83.4  44.9     1
    ##  4 alcona 0.041    10145      98.8     0.266 -83.3  44.8     1
    ##  5 alcona 0.041    10145      98.8     0.266 -83.3  44.8     1
    ##  6 alcona 0.041    10145      98.8     0.266 -83.3  44.8     1
    ##  7 alcona 0.041    10145      98.8     0.266 -83.3  44.7     1
    ##  8 alcona 0.041    10145      98.8     0.266 -83.3  44.7     1
    ##  9 alcona 0.041    10145      98.8     0.266 -83.3  44.7     1
    ## 10 alcona 0.041    10145      98.8     0.266 -83.3  44.6     1
    ## # ... with 1,462 more rows
…
